{
    "key": "group_608d4149611db",
    "title": "Team member fields",
    "fields": [
        {
            "key": "field_608d416534577",
            "label": "Team member department",
            "name": "team_member_department",
            "type": "taxonomy",
            "instructions": "",
            "required": 1,
            "conditional_logic": 0,
            "wrapper": {
                "width": "33",
                "class": "",
                "id": ""
            },
            "taxonomy": "product_cat",
            "field_type": "select",
            "allow_null": 0,
            "add_term": 0,
            "save_terms": 1,
            "load_terms": 1,
            "return_format": "id",
            "multiple": 0
        },
        {
            "key": "field_608d419534578",
            "label": "Team member location",
            "name": "team_member_location",
            "type": "taxonomy",
            "instructions": "",
            "required": 1,
            "conditional_logic": 0,
            "wrapper": {
                "width": "33",
                "class": "",
                "id": ""
            },
            "taxonomy": "locations",
            "field_type": "select",
            "allow_null": 0,
            "add_term": 0,
            "save_terms": 1,
            "load_terms": 1,
            "return_format": "id",
            "multiple": 0
        },
        {
            "key": "field_608d41d334579",
            "label": "Team member position",
            "name": "team_member_position",
            "type": "text",
            "instructions": "",
            "required": 1,
            "conditional_logic": 0,
            "wrapper": {
                "width": "33",
                "class": "",
                "id": ""
            },
            "default_value": "",
            "placeholder": "",
            "prepend": "",
            "append": "",
            "maxlength": ""
        }
    ],
    "location": [
        [
            {
                "param": "post_type",
                "operator": "==",
                "value": "team"
            }
        ]
    ],
    "menu_order": 0,
    "position": "acf_after_title",
    "style": "default",
    "label_placement": "top",
    "instruction_placement": "label",
    "hide_on_screen": "",
    "active": true,
    "description": "",
    "modified": 1619949579
}